.....................
----------------------------------------------------------------------
Ran 21 tests in 0.243s

OK
Name             Stmts   Miss Branch BrPart  Cover   Missing
------------------------------------------------------------
Collatz.py          47      0     20      0   100%
TestCollatz.py      87      0      0      0   100%
------------------------------------------------------------
TOTAL              134      0     20      0   100%
