..............
----------------------------------------------------------------------
Ran 14 tests in 0.231s

OK
Name                      Stmts   Miss Branch BrPart  Cover   Missing
---------------------------------------------------------------------
Collatz.py                   60      0     24      0   100%
hogan900-TestCollatz.py      63      0      0      0   100%
---------------------------------------------------------------------
TOTAL                       123      0     24      0   100%

