1 10 20
100 200 125
201 210 89
900 1000 174
209481 488897 449
461602 621917 470
188535 104968 383
261458 718962 509
604589 100690 470
454642 762266 509
448091 589667 470
943893 420536 525
442780 889343 525
244734 651292 509
179396 287155 443
206153 20964 383
224977 154296 386
392416 693062 509
988676 638007 525
467397 480097 413
377000 669155 509
163594 620270 470
872926 567554 525
141848 178475 383
543328 137760 470
768934 422156 509
575806 273227 470
980855 285380 525
233778 494266 449
840332 36256 525
660513 736646 504
2495 518566 470
292575 265456 407
145354 224964 386
539035 962973 525
308630 961261 525
356054 740101 509
600874 836220 509
612587 98411 470
91773 538024 470
406749 610698 470
140139 805997 509
470287 764927 509
622670 611574 447
199374 848859 525
288666 613777 470
96999 290336 443
38017 833715 509
452509 703605 509
230561 123005 386
82940 894483 525
372185 532217 470
137106 670601 509
658730 347498 509
418229 812170 509
549626 5302 470
317365 742245 509
685906 21210 509
589690 518707 452
275904 170169 443
570756 189628 470
553420 100046 470
148793 740675 509
985319 798756 525
882118 716302 525
971260 541977 525
835942 225465 509
649552 235185 509
14948 451154 449
803885 148484 509
523989 933329 525
719876 247606 509
186500 519216 470
435252 902406 525
416885 146245 449
302786 344075 384
726154 906174 525
410498 666640 509
668943 137365 509
405497 389715 405
461982 191556 449
132089 11770 354
168225 720612 509
275750 637336 509
767190 706905 424
429282 597328 470
841530 268252 525
378583 964727 525
752022 97486 509
163765 107611 383
877394 283187 525
688347 789667 504
129183 607790 470
705318 179434 509
493924 76812 449
1250 315510 443
856774 15667 525
67416 943113 525
742626 262467 509
915050 264187 525
287907 658340 509
303706 736620 509
918 560667 470
598837 947612 525
